%YAML 1.1
%TAG !u! tag:unity3d.com,2011:
--- !u!78 &1
TagManager:
  serializedVersion: 2
  tags:
  - Human
  - HoldableCollider
  - charger
  - shipcharger
  - ship
  - heater
  - grinder
  layers:
  - Default
  - TransparentFX
  - Ignore Raycast
  - 
  - Water
  - UI
  - 
  - 
  - Holdable
  - HoldableNoCol
  - ChairCol
  - Grinder
  - 
  - 
  - 
  - 
  - 
  - 
  - 
  - 
  - 
  - 
  - 
  - 
  - 
  - 
  - 
  - 
  - 
  - 
  - 
  - 
  m_SortingLayers:
  - name: BG
    uniqueID: 2695929239
    locked: 0
  - name: Default
    uniqueID: 0
    locked: 0
  - name: Desk
    uniqueID: 128062329
    locked: 0
  - name: Entity
    uniqueID: 1750802493
    locked: 0
  - name: Bar
    uniqueID: 3919494433
    locked: 0
  - name: Dialogue
    uniqueID: 824841849
    locked: 0
  - name: UI
    uniqueID: 3497206251
    locked: 0
